…
### Fetch lyrics for multiple artists and albums:

``` r
library(geniusfetchR)
library(dplyr)
library(rvest)
library(stringr)
library(xml2)
artists <- c("Fleetwood Mac", "Fleetwood Mac", "The Rolling Stones", "The Rolling Stones")
albums <- c("Rumours", "Tusk", "Let It Bleed", "Sticky Fingers")
genius_album_fetcher(artists, albums)
#> # A tibble: 51 × 5
#>    artist        album   song_title             song_lyrics_url       songLyrics
#>    <chr>         <chr>   <chr>                  <chr>                 <chr>     
#>  1 Fleetwood Mac Rumours Second Hand News       https://genius.com/F… " I know …
#>  2 Fleetwood Mac Rumours Dreams                 https://genius.com/F… " Now, he…
#>  3 Fleetwood Mac Rumours Never Going Back Again https://genius.com/F… " She bro…
#>  4 Fleetwood Mac Rumours Don't Stop             https://genius.com/F… " Yesterd…
#>  5 Fleetwood Mac Rumours Go Your Own Way        https://genius.com/F… " Loving …
#>  6 Fleetwood Mac Rumours Songbird               https://genius.com/F… " And the…
#>  7 Fleetwood Mac Rumours The Chain              https://genius.com/F… " (Fuck) …
#>  8 Fleetwood Mac Rumours You Make Loving Fun    https://genius.com/F… "  I neve…
#>  9 Fleetwood Mac Rumours I Don't Want to Know   https://genius.com/F… " I don't…
#> 10 Fleetwood Mac Rumours Oh Daddy               https://genius.com/F… " Oh, dad…
#> # ℹ 41 more rows
```
…
